…
topic.distribution <- files %>% # creating a sub-df i.o. to summarise per topic and year
  group_by(topic,year) %>% 
  mutate_at(c("year"),as.integer) %>% 
  count(topic) %>% 
  as.data.frame() 

files %>% 
  group_by(topic, year) %>% 
  mutate_at(c("year"), as.integer) %>% 
  count(topic)
```

    ## # A tibble: 298 x 3
    ## # Groups:   topic, year [298]
    ##    topic  year     n
    ##    <dbl> <int> <int>
    ##  1     1  2009     1
    ##  2     1  2014     1
    ##  3     1  2016     1
    ##  4     2  2008     5
    ##  5     2  2009     1
    ##  6     2  2010     1
    ##  7     2  2011     3
    ##  8     2  2012     3
    ##  9     2  2013     3
    ## 10     2  2014     2
    ## # ... with 288 more rows
…
